{
    "functionFieldsByAcquirer": [
        {
            "value": "PANVelocityCommerceMinutes",
            "label": "PANVelocityCommerceMinutes",
            "description": "Cantidad de transacciones autorizadas de una tarjeta por comercio minutos atras"
        },
        {
            "value": "PANVelocityCommerceHours",
            "label": "PANVelocityCommerceHours",
            "description": "Cantidad de transacciones autorizadas de una tarjeta por comercio horas atras"
        },
        {
            "value": "PANVelocityCommerceDays",
            "label": "PANVelocityCommerceDays",
            "description": "Cantidad de transacciones autorizadas de una tarjeta por comercio días atras"
        },
        {
            "value": "SUMamountPANInCommerceInHours",
            "label": "SUMamountPANInCommerceInHours",
            "description": "Monto acumulado de una tarjeta por comercio horas atrás"
        },
        {
            "value": "SUMamountPANInCommerceInDays",
            "label": "SUMamountPANInCommerceInDays",
            "description": "Monto acumulado por comercio días atras"
        },
        {
            "value": "SUMamountTxInMinutes",
            "label": "SUMamountTxInMinutes",
            "description": "Monto acumulado por comercio minutos atras"
        },
        {
            "value": "SUMamountTxInHours",
            "label": "SUMamountTxInHours",
            "description": "Monto acumulado por comercio horas atras"
        },
        {
            "value": "SUMamountTxInDay",
            "label": "SUMamountTxInDay",
            "description": "Monto acumulado por comercio días atras"
        },
        {
            "value": "CNTTxInMinutes",
            "label": "CNTTxInMinutes",
            "description": "Contador de transacciones por comercio minutos atrás"
        },
        {
            "value": "CNTTxInHours",
            "label": "CNTTxInHours",
            "description": "Contador de transacciones por comercio horas atrás"
        },
        {
            "value": "CNTTxInDays",
            "label": "CNTTxInDays",
            "description": "Contador de transacciones por comercio días atrás"
        },
        {
            "value": "CNTTxInMonths",
            "label": "CNTTxInMonths",
            "description": "Contador de transacciones por comercio meses atrás"
        },
        {
            "value": "CNTTxInDias14_039",
            "label": "CNTTxInDias14_039",
            "description": "Cantidad de transacciones autorizadas de una tarjeta por comercio días atrás desde la 00:00 Horas"
        },
        {
            "value": "SUMamountPANInCommerceInDias14_039",
            "label": "SUMamountPANInCommerceInDias14_039",
            "description": "Monto acumulado de una tarjeta por comercio y moneda días atrás"
        }
    ]
}